<?xml version="1.0" encoding="UTF-8" standalone="no"?>
<svg width="100px" height="100px" viewBox="0 0 100 100" version="1.1" xmlns="http://www.w3.org/2000/svg" xmlns:xlink="http://www.w3.org/1999/xlink">
    <!-- Generator: Sketch 40.2 (33826) - http://www.bohemiancoding.com/sketch -->
    <title>1474340953_medical_icon_3 copy</title>
    <desc>Created with Sketch.</desc>
    <defs>
        <ellipse id="path-1" cx="42.3720967" cy="42.4092602" rx="42.3720967" ry="42.3838958"></ellipse>
        <ellipse id="path-3" cx="42.3720967" cy="42.4092602" rx="42.3720967" ry="42.3838958"></ellipse>
        <ellipse id="path-5" cx="42.3720967" cy="42.4092602" rx="42.3720967" ry="42.3838958"></ellipse>
    </defs>
    <g id="Page-1" stroke="none" stroke-width="1" fill="none" fill-rule="evenodd">
        <g id="1474340953_medical_icon_3-copy">
            <g id="Layer_6">
                <g id="Group">
                    <ellipse id="Oval" fill="#60ADE0" cx="42.3720967" cy="57.1206064" rx="42.3720967" ry="42.3838958"></ellipse>
                    <path d="M23.1512413,36.9305519 C23.1512413,36.9305519 19.6265726,58.718563 42.0170941,58.718563 C64.4076156,58.718563 61.2379495,36.9305519 61.2379495,36.9305519 L23.1512413,36.9305519 L23.1512413,36.9305519 Z" id="Shape" fill="#53A1D8"></path>
                    <path d="M99.2232282,20.8241642 C99.2232282,11.3632467 91.5653149,3.70320095 82.1070312,3.70320095 C72.6487475,3.70320095 64.9908341,11.3632467 64.9908341,20.8241642 C64.9908341,25.491212 66.8672765,29.7270651 69.910156,32.8215207 L69.910156,32.8215207 C72.4966035,35.6876968 71.4823104,41.1410407 71.4823104,41.1410407 C71.4823104,41.1410407 73.2573234,40.0757363 74.7787631,39.5684485 C76.2748455,39.0611607 80.6616634,38.7060592 85.3527693,37.6407548 L85.3527693,37.6407548 C93.2388986,36.1442558 99.2232282,29.194413 99.2232282,20.8241642 L99.2232282,20.8241642 Z" id="Shape" fill="#E5E5E5"></path>
                    <path d="M99.4260869,18.465276 C99.4260869,9.00435847 91.7681735,1.34431267 82.3098898,1.34431267 C72.8516061,1.34431267 65.1683354,9.00435847 65.1683354,18.465276 C65.1683354,23.1323237 67.0447778,27.3681769 70.0876573,30.4626325 L70.0876573,30.4626325 C72.6741048,33.3288085 71.6598117,38.7821524 71.6598117,38.7821524 C71.6598117,38.7821524 73.4348247,37.716848 74.9562644,37.2095602 C76.4523468,36.7022724 80.8391647,36.347171 85.5302706,35.2818666 L85.5302706,35.2818666 C93.4417572,33.7853676 99.4260869,26.8355247 99.4260869,18.465276 L99.4260869,18.465276 Z" id="Shape" fill="#62B446"></path>
                    <g id="Clipped" transform="translate(0.000000, 14.711346)">
                        <mask id="mask-2" fill="white">
                            <use xlink:href="#path-1"></use>
                        </mask>
                        <g id="SVGID_1_"></g>
                        <path d="M9.96543028,73.4552736 L13.9465309,58.0844532 L70.2398012,58.0844532 L74.7787631,74.2922985 C74.7787631,74.2922985 62.2522426,86.9744935 41.7128061,86.8984003 C21.1733697,86.8223072 9.96543028,73.4552736 9.96543028,73.4552736 L9.96543028,73.4552736 Z" id="Shape" fill="#488DBE" mask="url(#mask-2)"></path>
                    </g>
                    <polygon id="Shape" fill="#FBD2AB" points="32.4066664 59.4794947 32.4066664 54.4319811 42.2453101 54.4319811 42.2453101 64.9835673 37.3259882 64.9835673"></polygon>
                    <polygon id="Shape" fill="#94C9E3" points="40.4195824 64.248 32.4573811 58.9214781 27.4873446 59.9106893 40.1660091 86.9998579"></polygon>
                    <polygon id="Shape" fill="#F26A45" points="42.2453101 63.9943561 39.6335052 63.9943561 37.5542042 66.6322527 39.9124358 69.0925985 38.1120654 79.8724643 42.2453101 88.1412555"></polygon>
                    <g id="Clipped" transform="translate(0.000000, 14.711346)">
                        <mask id="mask-4" fill="white">
                            <use xlink:href="#path-3"></use>
                        </mask>
                        <g id="SVGID_3_"></g>
                        <path d="M42.2453101,85.1989862 L42.2453101,75.0532302 L28.1212778,45.0471567 C28.1212778,45.0471567 13.3125977,47.7611465 13.3125977,61.5593747 C13.3125977,75.3576029 13.7436723,81.3182345 13.7436723,81.3182345 C13.7436723,81.3182345 29.6173602,85.7316384 42.2453101,85.1989862 L42.2453101,85.1989862 Z" id="Shape" fill="#FFFFFF" mask="url(#mask-4)"></path>
                    </g>
                    <polygon id="Shape" fill="#E4E4E4" points="42.2453101 90.905974 26.5491234 75.1293234 29.8709335 69.4984288 25.7376889 67.36782 28.1212778 59.7838674 42.2453101 86.873036"></polygon>
                    <path d="M42.2453101,16.6136755 L42.2453101,50.399043 C42.2453101,50.399043 29.3891443,53.1637616 25.6109023,44.2354963 C21.8326602,35.307231 25.6109023,19.378394 25.6109023,19.378394 C25.6109023,19.378394 25.5855449,9.84138334 42.2453101,16.6136755 L42.2453101,16.6136755 Z" id="Shape" fill="#FBD2AB"></path>
                    <path d="M25.7123316,25.4151188 L25.7123316,39.0104319 C25.7123316,44.7681485 31.2655866,48.0655192 31.2655866,48.0655192 C31.2655866,48.0655192 32.2291651,45.4022582 35.4749032,43.0433699 C38.7206413,40.6844817 42.2453101,41.0649475 42.2453101,41.0649475 L42.2453101,56.3850391 L37.5288469,56.3850391 C34.7902553,56.3850391 29.6934322,54.8631757 26.4730514,50.7287801 C23.2526707,46.5943845 23.0751694,43.9057592 23.0751694,37.2095602 L23.0751694,25.4151188 L25.7123316,25.4151188 L25.7123316,25.4151188 Z" id="Shape" fill="#E9C09D"></path>
                    <path d="M23.3794573,34.5716637 C23.3794573,34.5716637 19.0940687,34.7492144 19.0940687,30.5387256 C19.0940687,26.3282369 23.3794573,26.6072452 23.3794573,26.6072452 L23.3794573,34.5716637 L23.3794573,34.5716637 Z" id="Shape" fill="#FBD2AB"></path>
                    <path d="M42.2453101,38.0973139 L39.0502866,38.0973139 C38.5177827,38.0973139 37.9852788,37.8183056 38.695284,36.0174339 C39.4052892,34.2165622 40.774585,30.9445559 41.1803022,30.2089886 C41.5606622,29.4734212 42.2453101,29.1436842 42.2453101,29.1436842 L42.2453101,38.0973139 L42.2453101,38.0973139 Z" id="Shape" fill="#FBDFC4"></path>
                    <ellipse id="Oval" fill="#383B3B" cx="34.5620394" cy="27.8754647" rx="2.13001563" ry="2.13060876"></ellipse>
                    <path d="M42.2453101,47.0763079 L37.5288469,47.0763079 C37.5288469,47.0763079 37.5542042,48.8771796 39.1517159,50.3736787 C40.7492276,51.8701777 42.2706674,51.7179913 42.2706674,51.7179913 L42.2706674,47.0763079 L42.2453101,47.0763079 Z" id="Shape" fill="#383B3B"></path>
                    <polygon id="Shape" fill="#FFFFFF" points="42.2453101 45.7573597 37.6302762 45.7573597 37.5288469 47.0763079 42.2453101 47.0763079"></polygon>
                    <path d="M39.2024306,50.4244074 C39.2024306,50.4244074 39.4813612,50.1200348 40.3688677,49.6381113 C41.2563742,49.1561879 42.2706674,49.1054592 42.2706674,49.1054592 L42.2706674,51.7179913 C42.2453101,51.7179913 40.850657,51.8701777 39.2024306,50.4244074 L39.2024306,50.4244074 Z" id="Shape" fill="#F26A45"></path>
                    <polygon id="Shape" fill="#DEBA97" points="52.0585964 59.4794947 52.0585964 54.4319811 42.2199527 54.4319811 42.2199527 64.9835673 47.1392745 64.9835673"></polygon>
                    <polygon id="Shape" fill="#8FC1DB" points="44.0456804 64.248 52.0078817 58.9214781 56.9779182 59.9106893 44.2992537 86.9998579"></polygon>
                    <polygon id="Shape" fill="#E5613D" points="42.2199527 63.9943561 44.8317576 63.9943561 46.9110586 66.6322527 44.552827 69.0925985 46.3531973 79.8724643 42.2199527 88.1412555"></polygon>
                    <g id="Clipped" transform="translate(0.000000, 14.711346)">
                        <mask id="mask-6" fill="white">
                            <use xlink:href="#path-5"></use>
                        </mask>
                        <g id="SVGID_5_"></g>
                        <path d="M42.2199527,85.1989862 L42.2199527,75.0532302 L56.343985,45.0471567 C56.343985,45.0471567 71.1526651,47.7611465 71.1526651,61.5593747 C71.1526651,75.3576029 70.7215905,81.3182345 70.7215905,81.3182345 C70.7215905,81.3182345 54.8479026,85.7316384 42.2199527,85.1989862 L42.2199527,85.1989862 Z" id="Shape" fill="#F3F3F3" mask="url(#mask-6)"></path>
                    </g>
                    <polygon id="Shape" fill="#D8D9D8" points="42.2199527 90.905974 57.9414967 75.1293234 54.5943293 69.4984288 58.7275739 67.36782 56.343985 59.7838674 42.2199527 86.873036"></polygon>
                    <path d="M42.2199527,16.6136755 L42.2199527,50.399043 C42.2199527,50.399043 55.0761185,53.1637616 58.8543605,44.2354963 C62.6326025,35.307231 58.8543605,19.378394 58.8543605,19.378394 C58.8543605,19.378394 58.8797179,9.84138334 42.2199527,16.6136755 L42.2199527,16.6136755 Z" id="Shape" fill="#EEC7A2"></path>
                    <path d="M58.7529312,25.4151188 L58.7529312,39.0104319 C58.7529312,44.7681485 53.1996762,48.0655192 53.1996762,48.0655192 C53.1996762,48.0655192 52.2360977,45.4022582 48.9903596,43.0433699 C45.7446215,40.6844817 42.2199527,41.0649475 42.2199527,41.0649475 L42.2199527,56.3850391 L46.9364159,56.3850391 C49.6750074,56.3850391 54.7718306,54.8631757 57.9922113,50.7287801 C61.2125921,46.5943845 61.3900934,43.9057592 61.3900934,37.2095602 L61.3900934,25.4151188 L58.7529312,25.4151188 L58.7529312,25.4151188 Z" id="Shape" fill="#DEB696"></path>
                    <path d="M61.0858055,34.5716637 C61.0858055,34.5716637 65.3711941,34.7492144 65.3711941,30.5387256 C65.3711941,26.3282369 61.0858055,26.6072452 61.0858055,26.6072452 L61.0858055,34.5716637 L61.0858055,34.5716637 Z" id="Shape" fill="#E6C29D"></path>
                    <path d="M42.2199527,38.0973139 L45.4149762,38.0973139 C45.9474801,38.0973139 46.479984,37.8183056 45.7699788,36.0174339 C45.0599736,34.2165622 43.6906778,30.9445559 43.2849605,30.2089886 C42.9046006,29.4734212 42.2199527,29.1436842 42.2199527,29.1436842 L42.2199527,38.0973139 L42.2199527,38.0973139 Z" id="Shape" fill="#FBD2AB"></path>
                    <ellipse id="Oval" fill="#383B3B" cx="49.9032234" cy="27.8754647" rx="2.13001563" ry="2.13060876"></ellipse>
                    <path d="M42.2199527,47.0763079 L46.9364159,47.0763079 C46.9364159,47.0763079 46.9110586,48.8771796 45.3135469,50.3736787 C43.7160351,51.8701777 42.1945954,51.7179913 42.1945954,51.7179913 L42.1945954,47.0763079 L42.2199527,47.0763079 Z" id="Shape" fill="#383B3B"></path>
                    <polygon id="Shape" fill="#F3F3F3" points="42.2199527 45.7573597 46.8349866 45.7573597 46.9364159 47.0763079 42.2199527 47.0763079"></polygon>
                    <path d="M45.2628322,50.4244074 C45.2628322,50.4244074 44.9839016,50.1200348 44.0963951,49.6381113 C43.2088886,49.1561879 42.1945954,49.1054592 42.1945954,49.1054592 L42.1945954,51.7179913 C42.2199527,51.7179913 43.6146058,51.8701777 45.2628322,50.4244074 L45.2628322,50.4244074 Z" id="Shape" fill="#EC6440"></path>
                    <rect id="Rectangle-path" fill="#FFFFFF" x="70.8230198" y="14.0772365" width="22.8469534" height="1.80087169"></rect>
                    <rect id="Rectangle-path" fill="#FFFFFF" x="70.8230198" y="18.0594457" width="22.8469534" height="1.80087169"></rect>
                    <rect id="Rectangle-path" fill="#FFFFFF" x="70.8230198" y="22.041655" width="15.1890401" height="1.80087169"></rect>
                    <path d="M23.1512413,26.657974 L25.3826863,26.657974 C26.1180488,26.657974 27.4112726,25.1614749 27.4112726,23.9439842 L27.4112726,18.6681911 C27.4112726,17.5775223 28.4255658,15.9795657 31.8488052,15.9795657 C35.2720446,15.9795657 39.7349345,18.8457418 44.1724671,19.6574023 C48.6099996,20.4690628 50.6893006,20.0378681 50.6893006,20.0378681 C50.6893006,20.0378681 49.4975061,19.3530296 48.1282104,18.3130896 C46.7589146,17.2731496 46.2264107,15.9795657 46.2264107,15.9795657 L53.7321801,15.9795657 C55.4057638,15.9795657 57.1047048,17.0702345 57.1047048,20.7480711 C57.1047048,24.4259076 57.8400674,26.657974 59.3361498,26.657974 L61.2886641,26.657974 L61.2886641,19.3276652 C61.2886641,16.9941413 60.4011576,12.6061019 55.4564784,8.21806238 C50.5117993,3.8300229 43.2849605,4.0836668 43.2849605,4.0836668 C43.2849605,4.0836668 43.4624618,3.52565022 43.4878192,2.28279511 C43.5131765,1.03993999 43.1074592,0.228279511 43.1074592,0.228279511 C43.1074592,0.228279511 42.2199527,1.59795657 41.2563742,2.63789657 C40.2927957,3.65247217 39.2785026,4.00757363 39.2785026,4.00757363 C39.2785026,4.00757363 39.2024306,2.63789657 37.4020602,1.62332096 C35.6016899,0.634109751 33.3195303,1.0145756 33.3195303,1.0145756 C33.3195303,1.0145756 34.7395407,2.38425267 35.1199006,3.14518437 C35.5002606,3.88075168 35.6524045,4.94605606 35.6524045,4.94605606 C35.6524045,4.94605606 29.4398589,5.83380971 25.433401,12.1749072 C21.426943,18.5160047 23.1512413,26.657974 23.1512413,26.657974 L23.1512413,26.657974 Z" id="Shape" fill="#5D3918"></path>
                    <polygon id="Shape" fill="#E6C29D" points="38.7967133 38.0973139 42.1185234 41.1410407 42.1185234 38.0973139"></polygon>
                    <path d="M52.8446736,82.7893692 L52.8446736,87.6086033 C52.8446736,89.1304667 54.1632547,90.4747793 56.6229156,90.4747793 C59.0825765,90.4747793 60.8575895,89.5362969 60.8575895,87.2281374 L60.8575895,82.7893692 L52.8446736,82.7893692 L52.8446736,82.7893692 Z" id="Shape" fill="#D8D9D8"></path>
                    <rect id="Rectangle-path" fill="#6FB744" x="54.5689719" y="80.1514726" width="1.62286905" height="4.74314094"></rect>
                    <rect id="Rectangle-path" fill="#F26A45" x="57.5357794" y="80.1514726" width="1.62286905" height="4.74314094"></rect>
                </g>
            </g>
        </g>
    </g>
</svg>