<?xml version="1.0" encoding="UTF-8" standalone="no"?>
<svg width="30px" height="27px" viewBox="0 0 30 27" version="1.1" xmlns="http://www.w3.org/2000/svg" xmlns:xlink="http://www.w3.org/1999/xlink">
    <!-- Generator: Sketch 40.2 (33826) - http://www.bohemiancoding.com/sketch -->
    <title>Group 4 Copy</title>
    <desc>Created with Sketch.</desc>
    <defs></defs>
    <g id="Page-1" stroke="none" stroke-width="1" fill="none" fill-rule="evenodd">
        <g id="Group-4-Copy" transform="translate(15.500000, 13.500000) rotate(-90.000000) translate(-15.500000, -13.500000) translate(2.000000, -2.000000)">
            <g id="Group" opacity="0.2" transform="translate(0.000000, 1.428571)" fill="#231F20">
                <path d="M24.885,11.4285714 L19.2857143,11.4285714 L19.2857143,2.85714286 C19.2857143,1.27928571 18.0064286,1.77635684e-15 16.4285714,1.77635684e-15 L10.7142857,1.77635684e-15 C9.13642857,1.77635684e-15 7.85714286,1.27928571 7.85714286,2.85714286 L7.85714286,11.4285714 L2.25785714,11.4285714 C0.313571429,11.4285714 -0.23,12.7607143 1.05071429,14.3892857 L11.2435714,27.35 C12.5242857,28.9785714 14.6192857,28.9785714 15.9,27.35 L26.0921429,14.3885714 C27.3721429,12.7607143 26.8292857,11.4285714 24.885,11.4285714 L24.885,11.4285714 Z" id="Shape"></path>
            </g>
            <path d="M7.85714286,2.85714286 C7.85714286,1.27928571 9.13642857,0 10.7142857,0 L16.4285714,0 C18.0064286,0 19.2857143,1.27928571 19.2857143,2.85714286 L19.2857143,20 C19.2857143,21.5778571 18.0064286,22.8571429 16.4285714,22.8571429 L10.7142857,22.8571429 C9.13642857,22.8571429 7.85714286,21.5778571 7.85714286,20 L7.85714286,2.85714286 L7.85714286,2.85714286 Z" id="Shape" fill="#F7F8FA"></path>
            <path d="M24.885,11.4285714 C26.8292857,11.4285714 27.3728571,12.7607143 26.0921429,14.3892857 L15.8992857,27.35 C14.6185714,28.9785714 12.5235714,28.9785714 11.2428571,27.35 L1.05071429,14.3892857 C-0.229285714,12.7607143 0.313571429,11.4285714 2.25785714,11.4285714 L24.885,11.4285714 L24.885,11.4285714 Z" id="Shape" fill="#F7F8FA"></path>
        </g>
    </g>
</svg>