<?xml version="1.0" encoding="UTF-8" standalone="no"?>
<svg width="30px" height="30px" viewBox="0 0 30 30" version="1.1" xmlns="http://www.w3.org/2000/svg" xmlns:xlink="http://www.w3.org/1999/xlink">
    <!-- Generator: Sketch 40.2 (33826) - http://www.bohemiancoding.com/sketch -->
    <title>Email Copy</title>
    <desc>Created with Sketch.</desc>
    <defs></defs>
    <g id="Page-1" stroke="none" stroke-width="1" fill="none" fill-rule="evenodd">
        <g id="Email-Copy" fill="#FFFFFF">
            <path d="M0,14.8846512 C0,6.66408494 6.58948202,0 14.7180209,0 C22.8465599,0 29.4360419,6.66408494 29.4360419,14.8846512 C29.4360419,23.1052175 22.8465599,29.7693025 14.7180209,29.7693025 C6.58948202,29.7693025 0,23.1052175 0,14.8846512 Z" id="Instagram" opacity="0.2"></path>
            <g id="Group-2" transform="translate(6.774194, 7.000000)">
                <path d="M16.0496556,15.8266984 L16.0496556,9.88916277 C16.0496556,6.70797799 14.3897919,5.22764977 12.1769705,5.22764977 C10.3912544,5.22764977 9.59105145,6.23295486 9.14511791,6.93813861 L9.14511791,5.4709914 L5.78079705,5.4709914 C5.8253904,6.44283701 5.78079705,15.8266984 5.78079705,15.8266984 L9.14511791,15.8266984 L9.14511791,10.0432791 C9.14511791,9.73453944 9.1669191,9.4252928 9.25610581,9.20425749 C9.49889185,8.58576419 10.0523449,7.94547154 10.9813731,7.94547154 C12.1992672,7.94547154 12.6858303,8.89501084 12.6858303,10.2866208 L12.6858303,15.8272054 L16.0496556,15.8272054 L16.0496556,15.8266984 Z" id="Path"></path>
                <path d="M2.23661632,4.05758213 C3.40942155,4.05758213 4.14025708,3.26165223 4.14025708,2.2675003 C4.11845589,1.25205598 3.40942155,0.47893936 2.258913,0.47893936 C1.10840445,0.47893936 0.355767727,1.25154902 0.355767727,2.2675003 C0.355767727,3.26165223 1.08610778,4.05758213 2.21531061,4.05758213 L2.23661632,4.05758213 L2.23661632,4.05758213 Z" id="Path"></path>
                <polygon id="Path" points="3.91877675 15.8266984 3.91877675 5.4709914 0.554951377 5.4709914 0.554951377 15.8266984"></polygon>
            </g>
        </g>
    </g>
</svg>